gemm.log
Building verilator model
verilator 	+define+ --cc ./rtl/tb_random_gemm.sv ./rtl/Common/Interfaces.sv ./rtl/Common/types.svh ./rtl/Common/Config.sv ./rtl/Controller/Load_Ex_controller.sv ./rtl/Controller/buffer_accum_ctrl.sv ./rtl/Controller/Store_Controller.sv ./rtl/Datapath/memory_mapped.sv ./rtl/Datapath/accumulator.sv ./rtl/Datapath/systolic.sv ./rtl/Datapath/acum_buffer.sv ./rtl/Datapath/super_sys.sv ./rtl/Datapath/Memory_test.sv ./rtl/Datapath/systolic_setup_reverse.sv ./rtl/Datapath/memory_tb.sv ./rtl/Datapath/pipeline_gen.sv ./rtl/Datapath/gemm_decoder.sv ./rtl/Datapath/mac.sv ./rtl/Datapath/gemm_datapath.sv ./rtl/Datapath/systolic_setup.sv ./rtl/Datapath/memory.sv ./rtl/Utilities/buffer.sv ./rtl/Utilities/muxes.sv ./rtl/RISCV_Core/Datapath/Branch_block.sv ./rtl/RISCV_Core/Datapath/wb_stage.sv ./rtl/RISCV_Core/Datapath/Hazard_detection.sv ./rtl/RISCV_Core/Datapath/datapath.sv ./rtl/RISCV_Core/Datapath/Fetch.sv ./rtl/RISCV_Core/Datapath/CSR_reg.sv ./rtl/RISCV_Core/Datapath/Decode.sv ./rtl/RISCV_Core/Datapath/refreshcounter.sv ./rtl/RISCV_Core/Datapath/Instrmem.sv ./rtl/RISCV_Core/Datapath/ALU.sv ./rtl/RISCV_Core/Decoders/Rocc_controller.sv ./rtl/RISCV_Core/Decoders/Controller.sv ./rtl/RISCV_Core/Decoders/LS_controller.sv ./rtl/RISCV_Core/CEP.sv ./rtl/RISCV_Core/RISC_V.sv ./rtl/RISCV_Core/CEP_tb.sv ./rtl/RISCV_Core/Utilities/mux16x1.sv ./rtl/RISCV_Core/Utilities/x7segb8.sv ./rtl/RISCV_Core/Utilities/sevenseg.sv ./rtl/RISCV_Core/Utilities/timer.sv ./rtl/RISCV_Core/Utilities/Regfile.sv ./rtl/RISCV_Core/Utilities/Pipeline_reg.sv ./rtl/RISCV_Core/Utilities/anodecontroller.sv			  +incdir+rtl/ --top-module tb_random_gemm -Wno-TIMESCALEMOD -Wno-MULTIDRIVEN -Wno-CASEOVERLAP -Wno-WIDTH -Wno-MODDUP -Wno-WIDTHCONCAT -Wno-CMPCONST -Wno-CASEINCOMPLETE -Wno-INITIALDLY -Wno-LATCH -Wno-UNOPTFLAT -Wno-IMPLICIT -Wno-PINMISSING --timing --Mdir ver_work --exe bench/tb_random_gemm.cpp --trace-structs --trace
cd ver_work && make -f Vtb_random_gemm.mk
make[1]: Entering directory '/home/abdul_waheed/Music/FYP/ver_work'
ccache g++  -I.  -MMD -I/usr/local/share/verilator/include -I/usr/local/share/verilator/include/vltstd -DVM_COVERAGE=0 -DVM_SC=0 -DVM_TRACE=1 -DVM_TRACE_FST=0 -DVM_TRACE_VCD=1 -faligned-new -fcf-protection=none -Wno-bool-operation -Wno-sign-compare -Wno-uninitialized -Wno-unused-but-set-variable -Wno-unused-parameter -Wno-unused-variable -Wno-shadow       -fcoroutines -Os -c -o tb_random_gemm.o ../bench/tb_random_gemm.cpp
ccache g++ -Os  -I.  -MMD -I/usr/local/share/verilator/include -I/usr/local/share/verilator/include/vltstd -DVM_COVERAGE=0 -DVM_SC=0 -DVM_TRACE=1 -DVM_TRACE_FST=0 -DVM_TRACE_VCD=1 -faligned-new -fcf-protection=none -Wno-bool-operation -Wno-sign-compare -Wno-uninitialized -Wno-unused-but-set-variable -Wno-unused-parameter -Wno-unused-variable -Wno-shadow       -fcoroutines -c -o verilated.o /usr/local/share/verilator/include/verilated.cpp
ccache g++ -Os  -I.  -MMD -I/usr/local/share/verilator/include -I/usr/local/share/verilator/include/vltstd -DVM_COVERAGE=0 -DVM_SC=0 -DVM_TRACE=1 -DVM_TRACE_FST=0 -DVM_TRACE_VCD=1 -faligned-new -fcf-protection=none -Wno-bool-operation -Wno-sign-compare -Wno-uninitialized -Wno-unused-but-set-variable -Wno-unused-parameter -Wno-unused-variable -Wno-shadow       -fcoroutines -c -o verilated_vcd_c.o /usr/local/share/verilator/include/verilated_vcd_c.cpp
ccache g++ -Os  -I.  -MMD -I/usr/local/share/verilator/include -I/usr/local/share/verilator/include/vltstd -DVM_COVERAGE=0 -DVM_SC=0 -DVM_TRACE=1 -DVM_TRACE_FST=0 -DVM_TRACE_VCD=1 -faligned-new -fcf-protection=none -Wno-bool-operation -Wno-sign-compare -Wno-uninitialized -Wno-unused-but-set-variable -Wno-unused-parameter -Wno-unused-variable -Wno-shadow       -fcoroutines -c -o verilated_timing.o /usr/local/share/verilator/include/verilated_timing.cpp
ccache g++ -Os  -I.  -MMD -I/usr/local/share/verilator/include -I/usr/local/share/verilator/include/vltstd -DVM_COVERAGE=0 -DVM_SC=0 -DVM_TRACE=1 -DVM_TRACE_FST=0 -DVM_TRACE_VCD=1 -faligned-new -fcf-protection=none -Wno-bool-operation -Wno-sign-compare -Wno-uninitialized -Wno-unused-but-set-variable -Wno-unused-parameter -Wno-unused-variable -Wno-shadow       -fcoroutines -c -o verilated_threads.o /usr/local/share/verilator/include/verilated_threads.cpp
ccache g++ -Os  -I.  -MMD -I/usr/local/share/verilator/include -I/usr/local/share/verilator/include/vltstd -DVM_COVERAGE=0 -DVM_SC=0 -DVM_TRACE=1 -DVM_TRACE_FST=0 -DVM_TRACE_VCD=1 -faligned-new -fcf-protection=none -Wno-bool-operation -Wno-sign-compare -Wno-uninitialized -Wno-unused-but-set-variable -Wno-unused-parameter -Wno-unused-variable -Wno-shadow       -fcoroutines -c -o Vtb_random_gemm.o Vtb_random_gemm.cpp
ccache g++ -Os  -I.  -MMD -I/usr/local/share/verilator/include -I/usr/local/share/verilator/include/vltstd -DVM_COVERAGE=0 -DVM_SC=0 -DVM_TRACE=1 -DVM_TRACE_FST=0 -DVM_TRACE_VCD=1 -faligned-new -fcf-protection=none -Wno-bool-operation -Wno-sign-compare -Wno-uninitialized -Wno-unused-but-set-variable -Wno-unused-parameter -Wno-unused-variable -Wno-shadow       -fcoroutines -c -o Vtb_random_gemm___024root__DepSet_h28bfc5d6__0.o Vtb_random_gemm___024root__DepSet_h28bfc5d6__0.cpp
ccache g++ -Os  -I.  -MMD -I/usr/local/share/verilator/include -I/usr/local/share/verilator/include/vltstd -DVM_COVERAGE=0 -DVM_SC=0 -DVM_TRACE=1 -DVM_TRACE_FST=0 -DVM_TRACE_VCD=1 -faligned-new -fcf-protection=none -Wno-bool-operation -Wno-sign-compare -Wno-uninitialized -Wno-unused-but-set-variable -Wno-unused-parameter -Wno-unused-variable -Wno-shadow       -fcoroutines -c -o Vtb_random_gemm___024root__DepSet_h9ca26d84__0.o Vtb_random_gemm___024root__DepSet_h9ca26d84__0.cpp
ccache g++ -Os  -I.  -MMD -I/usr/local/share/verilator/include -I/usr/local/share/verilator/include/vltstd -DVM_COVERAGE=0 -DVM_SC=0 -DVM_TRACE=1 -DVM_TRACE_FST=0 -DVM_TRACE_VCD=1 -faligned-new -fcf-protection=none -Wno-bool-operation -Wno-sign-compare -Wno-uninitialized -Wno-unused-but-set-variable -Wno-unused-parameter -Wno-unused-variable -Wno-shadow       -fcoroutines -c -o Vtb_random_gemm_systolic_setup__P10__DepSet_h6ed6a72b__0.o Vtb_random_gemm_systolic_setup__P10__DepSet_h6ed6a72b__0.cpp
ccache g++ -Os  -I.  -MMD -I/usr/local/share/verilator/include -I/usr/local/share/verilator/include/vltstd -DVM_COVERAGE=0 -DVM_SC=0 -DVM_TRACE=1 -DVM_TRACE_FST=0 -DVM_TRACE_VCD=1 -faligned-new -fcf-protection=none -Wno-bool-operation -Wno-sign-compare -Wno-uninitialized -Wno-unused-but-set-variable -Wno-unused-parameter -Wno-unused-variable -Wno-shadow       -fcoroutines -c -o Vtb_random_gemm_systolic_setup__D1_P10__DepSet_he6948b86__0.o Vtb_random_gemm_systolic_setup__D1_P10__DepSet_he6948b86__0.cpp
ccache g++ -Os  -I.  -MMD -I/usr/local/share/verilator/include -I/usr/local/share/verilator/include/vltstd -DVM_COVERAGE=0 -DVM_SC=0 -DVM_TRACE=1 -DVM_TRACE_FST=0 -DVM_TRACE_VCD=1 -faligned-new -fcf-protection=none -Wno-bool-operation -Wno-sign-compare -Wno-uninitialized -Wno-unused-but-set-variable -Wno-unused-parameter -Wno-unused-variable -Wno-shadow       -fcoroutines -c -o Vtb_random_gemm_systolic__DepSet_h197ea910__0.o Vtb_random_gemm_systolic__DepSet_h197ea910__0.cpp
ccache g++ -Os  -I.  -MMD -I/usr/local/share/verilator/include -I/usr/local/share/verilator/include/vltstd -DVM_COVERAGE=0 -DVM_SC=0 -DVM_TRACE=1 -DVM_TRACE_FST=0 -DVM_TRACE_VCD=1 -faligned-new -fcf-protection=none -Wno-bool-operation -Wno-sign-compare -Wno-uninitialized -Wno-unused-but-set-variable -Wno-unused-parameter -Wno-unused-variable -Wno-shadow       -fcoroutines -c -o Vtb_random_gemm_systolic__DepSet_h197ea910__1.o Vtb_random_gemm_systolic__DepSet_h197ea910__1.cpp
ccache g++ -Os  -I.  -MMD -I/usr/local/share/verilator/include -I/usr/local/share/verilator/include/vltstd -DVM_COVERAGE=0 -DVM_SC=0 -DVM_TRACE=1 -DVM_TRACE_FST=0 -DVM_TRACE_VCD=1 -faligned-new -fcf-protection=none -Wno-bool-operation -Wno-sign-compare -Wno-uninitialized -Wno-unused-but-set-variable -Wno-unused-parameter -Wno-unused-variable -Wno-shadow       -fcoroutines -c -o Vtb_random_gemm_systolic__DepSet_h6be198c6__0.o Vtb_random_gemm_systolic__DepSet_h6be198c6__0.cpp
ccache g++ -Os  -I.  -MMD -I/usr/local/share/verilator/include -I/usr/local/share/verilator/include/vltstd -DVM_COVERAGE=0 -DVM_SC=0 -DVM_TRACE=1 -DVM_TRACE_FST=0 -DVM_TRACE_VCD=1 -faligned-new -fcf-protection=none -Wno-bool-operation -Wno-sign-compare -Wno-uninitialized -Wno-unused-but-set-variable -Wno-unused-parameter -Wno-unused-variable -Wno-shadow       -fcoroutines -c -o Vtb_random_gemm__Trace__0.o Vtb_random_gemm__Trace__0.cpp
ccache g++   -I.  -MMD -I/usr/local/share/verilator/include -I/usr/local/share/verilator/include/vltstd -DVM_COVERAGE=0 -DVM_SC=0 -DVM_TRACE=1 -DVM_TRACE_FST=0 -DVM_TRACE_VCD=1 -faligned-new -fcf-protection=none -Wno-bool-operation -Wno-sign-compare -Wno-uninitialized -Wno-unused-but-set-variable -Wno-unused-parameter -Wno-unused-variable -Wno-shadow       -fcoroutines -c -o Vtb_random_gemm__ConstPool_0.o Vtb_random_gemm__ConstPool_0.cpp
ccache g++   -I.  -MMD -I/usr/local/share/verilator/include -I/usr/local/share/verilator/include/vltstd -DVM_COVERAGE=0 -DVM_SC=0 -DVM_TRACE=1 -DVM_TRACE_FST=0 -DVM_TRACE_VCD=1 -faligned-new -fcf-protection=none -Wno-bool-operation -Wno-sign-compare -Wno-uninitialized -Wno-unused-but-set-variable -Wno-unused-parameter -Wno-unused-variable -Wno-shadow       -fcoroutines -c -o Vtb_random_gemm___024root__Slow.o Vtb_random_gemm___024root__Slow.cpp
ccache g++   -I.  -MMD -I/usr/local/share/verilator/include -I/usr/local/share/verilator/include/vltstd -DVM_COVERAGE=0 -DVM_SC=0 -DVM_TRACE=1 -DVM_TRACE_FST=0 -DVM_TRACE_VCD=1 -faligned-new -fcf-protection=none -Wno-bool-operation -Wno-sign-compare -Wno-uninitialized -Wno-unused-but-set-variable -Wno-unused-parameter -Wno-unused-variable -Wno-shadow       -fcoroutines -c -o Vtb_random_gemm___024root__DepSet_h28bfc5d6__0__Slow.o Vtb_random_gemm___024root__DepSet_h28bfc5d6__0__Slow.cpp
ccache g++   -I.  -MMD -I/usr/local/share/verilator/include -I/usr/local/share/verilator/include/vltstd -DVM_COVERAGE=0 -DVM_SC=0 -DVM_TRACE=1 -DVM_TRACE_FST=0 -DVM_TRACE_VCD=1 -faligned-new -fcf-protection=none -Wno-bool-operation -Wno-sign-compare -Wno-uninitialized -Wno-unused-but-set-variable -Wno-unused-parameter -Wno-unused-variable -Wno-shadow       -fcoroutines -c -o Vtb_random_gemm___024root__DepSet_h9ca26d84__0__Slow.o Vtb_random_gemm___024root__DepSet_h9ca26d84__0__Slow.cpp
ccache g++   -I.  -MMD -I/usr/local/share/verilator/include -I/usr/local/share/verilator/include/vltstd -DVM_COVERAGE=0 -DVM_SC=0 -DVM_TRACE=1 -DVM_TRACE_FST=0 -DVM_TRACE_VCD=1 -faligned-new -fcf-protection=none -Wno-bool-operation -Wno-sign-compare -Wno-uninitialized -Wno-unused-but-set-variable -Wno-unused-parameter -Wno-unused-variable -Wno-shadow       -fcoroutines -c -o Vtb_random_gemm___024unit__Slow.o Vtb_random_gemm___024unit__Slow.cpp
ccache g++   -I.  -MMD -I/usr/local/share/verilator/include -I/usr/local/share/verilator/include/vltstd -DVM_COVERAGE=0 -DVM_SC=0 -DVM_TRACE=1 -DVM_TRACE_FST=0 -DVM_TRACE_VCD=1 -faligned-new -fcf-protection=none -Wno-bool-operation -Wno-sign-compare -Wno-uninitialized -Wno-unused-but-set-variable -Wno-unused-parameter -Wno-unused-variable -Wno-shadow       -fcoroutines -c -o Vtb_random_gemm___024unit__DepSet_ha9aac11f__0__Slow.o Vtb_random_gemm___024unit__DepSet_ha9aac11f__0__Slow.cpp
ccache g++   -I.  -MMD -I/usr/local/share/verilator/include -I/usr/local/share/verilator/include/vltstd -DVM_COVERAGE=0 -DVM_SC=0 -DVM_TRACE=1 -DVM_TRACE_FST=0 -DVM_TRACE_VCD=1 -faligned-new -fcf-protection=none -Wno-bool-operation -Wno-sign-compare -Wno-uninitialized -Wno-unused-but-set-variable -Wno-unused-parameter -Wno-unused-variable -Wno-shadow       -fcoroutines -c -o Vtb_random_gemm_systolic_setup__P10__Slow.o Vtb_random_gemm_systolic_setup__P10__Slow.cpp
ccache g++   -I.  -MMD -I/usr/local/share/verilator/include -I/usr/local/share/verilator/include/vltstd -DVM_COVERAGE=0 -DVM_SC=0 -DVM_TRACE=1 -DVM_TRACE_FST=0 -DVM_TRACE_VCD=1 -faligned-new -fcf-protection=none -Wno-bool-operation -Wno-sign-compare -Wno-uninitialized -Wno-unused-but-set-variable -Wno-unused-parameter -Wno-unused-variable -Wno-shadow       -fcoroutines -c -o Vtb_random_gemm_systolic_setup__P10__DepSet_hde798eef__0__Slow.o Vtb_random_gemm_systolic_setup__P10__DepSet_hde798eef__0__Slow.cpp
ccache g++   -I.  -MMD -I/usr/local/share/verilator/include -I/usr/local/share/verilator/include/vltstd -DVM_COVERAGE=0 -DVM_SC=0 -DVM_TRACE=1 -DVM_TRACE_FST=0 -DVM_TRACE_VCD=1 -faligned-new -fcf-protection=none -Wno-bool-operation -Wno-sign-compare -Wno-uninitialized -Wno-unused-but-set-variable -Wno-unused-parameter -Wno-unused-variable -Wno-shadow       -fcoroutines -c -o Vtb_random_gemm_systolic_setup__D1_P10__Slow.o Vtb_random_gemm_systolic_setup__D1_P10__Slow.cpp
ccache g++   -I.  -MMD -I/usr/local/share/verilator/include -I/usr/local/share/verilator/include/vltstd -DVM_COVERAGE=0 -DVM_SC=0 -DVM_TRACE=1 -DVM_TRACE_FST=0 -DVM_TRACE_VCD=1 -faligned-new -fcf-protection=none -Wno-bool-operation -Wno-sign-compare -Wno-uninitialized -Wno-unused-but-set-variable -Wno-unused-parameter -Wno-unused-variable -Wno-shadow       -fcoroutines -c -o Vtb_random_gemm_systolic_setup__D1_P10__DepSet_h56bbbb54__0__Slow.o Vtb_random_gemm_systolic_setup__D1_P10__DepSet_h56bbbb54__0__Slow.cpp
ccache g++   -I.  -MMD -I/usr/local/share/verilator/include -I/usr/local/share/verilator/include/vltstd -DVM_COVERAGE=0 -DVM_SC=0 -DVM_TRACE=1 -DVM_TRACE_FST=0 -DVM_TRACE_VCD=1 -faligned-new -fcf-protection=none -Wno-bool-operation -Wno-sign-compare -Wno-uninitialized -Wno-unused-but-set-variable -Wno-unused-parameter -Wno-unused-variable -Wno-shadow       -fcoroutines -c -o Vtb_random_gemm_systolic__Slow.o Vtb_random_gemm_systolic__Slow.cpp
ccache g++   -I.  -MMD -I/usr/local/share/verilator/include -I/usr/local/share/verilator/include/vltstd -DVM_COVERAGE=0 -DVM_SC=0 -DVM_TRACE=1 -DVM_TRACE_FST=0 -DVM_TRACE_VCD=1 -faligned-new -fcf-protection=none -Wno-bool-operation -Wno-sign-compare -Wno-uninitialized -Wno-unused-but-set-variable -Wno-unused-parameter -Wno-unused-variable -Wno-shadow       -fcoroutines -c -o Vtb_random_gemm_systolic__DepSet_h197ea910__0__Slow.o Vtb_random_gemm_systolic__DepSet_h197ea910__0__Slow.cpp
ccache g++   -I.  -MMD -I/usr/local/share/verilator/include -I/usr/local/share/verilator/include/vltstd -DVM_COVERAGE=0 -DVM_SC=0 -DVM_TRACE=1 -DVM_TRACE_FST=0 -DVM_TRACE_VCD=1 -faligned-new -fcf-protection=none -Wno-bool-operation -Wno-sign-compare -Wno-uninitialized -Wno-unused-but-set-variable -Wno-unused-parameter -Wno-unused-variable -Wno-shadow       -fcoroutines -c -o Vtb_random_gemm_systolic__DepSet_h6be198c6__0__Slow.o Vtb_random_gemm_systolic__DepSet_h6be198c6__0__Slow.cpp
ccache g++   -I.  -MMD -I/usr/local/share/verilator/include -I/usr/local/share/verilator/include/vltstd -DVM_COVERAGE=0 -DVM_SC=0 -DVM_TRACE=1 -DVM_TRACE_FST=0 -DVM_TRACE_VCD=1 -faligned-new -fcf-protection=none -Wno-bool-operation -Wno-sign-compare -Wno-uninitialized -Wno-unused-but-set-variable -Wno-unused-parameter -Wno-unused-variable -Wno-shadow       -fcoroutines -c -o Vtb_random_gemm__Syms.o Vtb_random_gemm__Syms.cpp
ccache g++   -I.  -MMD -I/usr/local/share/verilator/include -I/usr/local/share/verilator/include/vltstd -DVM_COVERAGE=0 -DVM_SC=0 -DVM_TRACE=1 -DVM_TRACE_FST=0 -DVM_TRACE_VCD=1 -faligned-new -fcf-protection=none -Wno-bool-operation -Wno-sign-compare -Wno-uninitialized -Wno-unused-but-set-variable -Wno-unused-parameter -Wno-unused-variable -Wno-shadow       -fcoroutines -c -o Vtb_random_gemm__Trace__0__Slow.o Vtb_random_gemm__Trace__0__Slow.cpp
echo "" > Vtb_random_gemm__ALL.verilator_deplist.tmp
Archive ar -rcs Vtb_random_gemm__ALL.a Vtb_random_gemm.o Vtb_random_gemm___024root__DepSet_h28bfc5d6__0.o Vtb_random_gemm___024root__DepSet_h9ca26d84__0.o Vtb_random_gemm_systolic_setup__P10__DepSet_h6ed6a72b__0.o Vtb_random_gemm_systolic_setup__D1_P10__DepSet_he6948b86__0.o Vtb_random_gemm_systolic__DepSet_h197ea910__0.o Vtb_random_gemm_systolic__DepSet_h197ea910__1.o Vtb_random_gemm_systolic__DepSet_h6be198c6__0.o Vtb_random_gemm__Trace__0.o Vtb_random_gemm__ConstPool_0.o Vtb_random_gemm___024root__Slow.o Vtb_random_gemm___024root__DepSet_h28bfc5d6__0__Slow.o Vtb_random_gemm___024root__DepSet_h9ca26d84__0__Slow.o Vtb_random_gemm___024unit__Slow.o Vtb_random_gemm___024unit__DepSet_ha9aac11f__0__Slow.o Vtb_random_gemm_systolic_setup__P10__Slow.o Vtb_random_gemm_systolic_setup__P10__DepSet_hde798eef__0__Slow.o Vtb_random_gemm_systolic_setup__D1_P10__Slow.o Vtb_random_gemm_systolic_setup__D1_P10__DepSet_h56bbbb54__0__Slow.o Vtb_random_gemm_systolic__Slow.o Vtb_random_gemm_systolic__DepSet_h197ea910__0__Slow.o Vtb_random_gemm_systolic__DepSet_h6be198c6__0__Slow.o Vtb_random_gemm__Syms.o Vtb_random_gemm__Trace__0__Slow.o
g++     tb_random_gemm.o verilated.o verilated_vcd_c.o verilated_timing.o verilated_threads.o Vtb_random_gemm__ALL.a    -pthread -lpthread -latomic   -o Vtb_random_gemm
rm Vtb_random_gemm__ALL.verilator_deplist.tmp
make[1]: Leaving directory '/home/abdul_waheed/Music/FYP/ver_work'
hello entering simulation
ver_work/Vtb_random_gemm  +max_cycles=1000000000000000000000000000000000000 +vcd=0
%Warning: DCACHE.mem:0: $readmem file not found
------------------------------------Test No           1--------------------------------------
M=         61, K=         52, N=         43 
------------------------------------Test No           2--------------------------------------
M=         35, K=         65, N=         62 
------------------------------------Test No           3--------------------------------------
M=         38, K=         55, N=         61 
------------------------------------Test No           4--------------------------------------
M=         25, K=         70, N=         51 
------------------------------------Test No           5--------------------------------------
M=         20, K=         40, N=         23 
------------------------------------Test No           6--------------------------------------
M=         44, K=         24, N=         28 
------------------------------------Test No           7--------------------------------------
M=         22, K=         57, N=         48 
------------------------------------Test No           8--------------------------------------
M=         29, K=         43, N=         52 
------------------------------------Test No           9--------------------------------------
M=         57, K=         52, N=         55 
------------------------------------Test No          10--------------------------------------
M=         38, K=         64, N=         55 
------------------------------------Test No          11--------------------------------------
M=         62, K=         26, N=         27 
------------------------------------Test No          12--------------------------------------
M=         41, K=         67, N=         42 
------------------------------------Test No          13--------------------------------------
M=         42, K=         30, N=         59 
------------------------------------Test No          14--------------------------------------
M=         40, K=         28, N=         26 
------------------------------------Test No          15--------------------------------------
M=         68, K=         30, N=         62 
------------------------------------Test No          16--------------------------------------
M=         41, K=         60, N=         64 
------------------------------------Test No          17--------------------------------------
M=         42, K=         47, N=         20 
------------------------------------Test No          18--------------------------------------
M=         22, K=         25, N=         36 
------------------------------------Test No          19--------------------------------------
M=         25, K=         69, N=         48 
------------------------------------Test No          20--------------------------------------
M=         58, K=         62, N=         51 
------------------------------------Test No          21--------------------------------------
M=         32, K=         51, N=         27 
------------------------------------Test No          22--------------------------------------
M=         61, K=         36, N=         53 
------------------------------------Test No          23--------------------------------------
M=         37, K=         67, N=         62 
------------------------------------Test No          24--------------------------------------
M=         69, K=         44, N=         29 
------------------------------------Test No          25--------------------------------------
M=         48, K=         33, N=         36 
------------------------------------Test No          26--------------------------------------
M=         37, K=         62, N=         41 
------------------------------------Test No          27--------------------------------------
M=         65, K=         45, N=         27 
------------------------------------Test No          28--------------------------------------
M=         24, K=         69, N=         63 
------------------------------------Test No          29--------------------------------------
M=         46, K=         22, N=         62 
------------------------------------Test No          30--------------------------------------
M=         42, K=         60, N=         55 
------------------------------------Test No          31--------------------------------------
M=         55, K=         37, N=         40 
------------------------------------Test No          32--------------------------------------
M=         45, K=         22, N=         47 
------------------------------------Test No          33--------------------------------------
M=         35, K=         46, N=         39 
------------------------------------Test No          34--------------------------------------
M=         52, K=         40, N=         33 
------------------------------------Test No          35--------------------------------------
M=         30, K=         65, N=         21 
------------------------------------Test No          36--------------------------------------
M=         42, K=         66, N=         52 
------------------------------------Test No          37--------------------------------------
M=         44, K=         38, N=         30 
------------------------------------Test No          38--------------------------------------
M=         60, K=         22, N=         26 
------------------------------------Test No          39--------------------------------------
M=         32, K=         29, N=         56 
------------------------------------Test No          40--------------------------------------
M=         56, K=         44, N=         39 
------------------------------------Test No          41--------------------------------------
M=         37, K=         39, N=         29 
------------------------------------Test No          42--------------------------------------
M=         37, K=         32, N=         33 
------------------------------------Test No          43--------------------------------------
M=         33, K=         20, N=         43 
------------------------------------Test No          44--------------------------------------
M=         27, K=         39, N=         68 
------------------------------------Test No          45--------------------------------------
M=         48, K=         51, N=         55 
------------------------------------Test No          46--------------------------------------
M=         22, K=         47, N=         32 
------------------------------------Test No          47--------------------------------------
M=         36, K=         31, N=         58 
------------------------------------Test No          48--------------------------------------
M=         35, K=         44, N=         65 
------------------------------------Test No          49--------------------------------------
M=         44, K=         67, N=         57 
------------------------------------Test No          50--------------------------------------
M=         59, K=         43, N=         44 
- rtl/tb_random_gemm.sv:244: Verilog $finish
