WHOLE/WHOLE.sim/sim_1/behav/xsim/tb_top_dump.vcd
$date
   Wed Apr  3 08:51:54 2024
$end
$version
  2019.2
$end
$timescale
  1ps
$end
$scope module tb_top $end
$scope module DUT $end
$var wire 1 ! clk $end
$var wire 1 " rst $end
$var reg 1 # system_bus_en $end
$var reg 1 $ system_bus_rdwr $end
$var reg 32 % system_bus_rd_data [31:0] $end
$var reg 32 & system_bus_wr_data [31:0] $end
$var reg 32 ' gemm_conf_read [31:0] $end
$var reg 32 ( mem_read_data [31:0] $end
$var reg 32 ) gemm_conf_read_ppl [31:0] $end
$var reg 1 * is_gemm_addr_late $end
$var reg 32 + system_bus_addr [31:0] $end
$var reg 5 , interface_control [4:0] $end
$var reg 1 - interface_rdwr $end
$var reg 1 . interface_en $end
$var reg 32 / interface_addr [31:0] $end
$var reg 128 0 interface_rd_data [127:0] $end
$var reg 128 1 interface_wr_data [127:0] $end
$var reg 4 2 system_bus_mask [3:0] $end
$var wire 1 3 is_gemm_addr $end
$var wire 1 4 en_gemm_conf $end
$var wire 1 5 en_Dmem $end
$upscope $end
$upscope $end
$enddefinitions $end
#0
$dumpvars
0!
1"
x#
x$
bx %
bx &
bx '
bx (
bx )
x*
bx +
bx ,
0-
0.
bx /
bx 0
bx 1
bx 2
x3
x4
x5
$end
#1000
1!
0#
0$
b10011 &
bx (
bx )
x*
b0 +
bx ,
0-
0.
b0 /
b1 2
03
04
05
#2000
0!
#3000
1!
0"
bx %
bx (
bx )
0*
bx 0
#4000
0!
#5000
1!
b0 &
bx )
0*
b1 2
#6000
0!
#7000
1!
bx )
0*
b1000010000 +
#8000
0!
#9000
1!
bx )
0*
b0 +
#10000
0!
#11000
1!
bx )
0*
#12000
0!
#13000
1!
bx )
0*
b10000 +
#14000
0!
#15000
1!
b10011 &
bx )
0*
b0 +
b1 2
#16000
0!
#17000
1!
b0 &
bx )
0*
b1 2
#18000
0!
#19000
1!
bx )
0*
b1000000000 +
bx ,
0-
0.
#20000
0!
#21000
1!
1#
1$
b0 &
bx )
0*
b1000001100 +
b1111 2
04
15
#22000
0!
#23000
1!
0#
0$
b101 %
b0 &
b101 (
bx )
0*
b1000010000 +
b1 2
04
05
#24000
0!
#25000
1!
1#
1$
bx %
b0 &
bx (
bx )
0*
b11000100000 +
b1111 2
04
15
#26000
0!
#27000
1!
0#
0$
b0 &
bx )
0*
b1000001100 +
b1 2
04
05
#28000
0!
#29000
1!
b101 %
b10011 &
b101 (
bx )
0*
b0 +
b1 2
#30000
0!
#31000
1!
bx %
b0 &
bx (
bx )
0*
b1 2
#32000
0!
#33000
1!
1#
b0 &
bx )
0*
b11000100000 +
b1111 2
04
15
#34000
0!
#35000
1!
b0 %
b0 (
bx )
0*
#36000
0!
#37000
1!
0#
b0 &
bx )
0*
b1111 +
b1000 2
04
05
#38000
0!
#39000
1!
b101 %
b0 &
b101 (
bx )
0*
b100100 +
bx 2
#40000
0!
#41000
1!
bx %
b10011 &
bx (
bx )
0*
b0 +
b1 2
#42000
0!
#43000
1!
b0 %
b0 &
b0 (
bx )
0*
b1 2
#44000
0!
#45000
1!
1#
b0 &
bx )
0*
b11000100000 +
b1111 2
04
15
#46000
0!
#47000
1!
bx )
0*
#48000
0!
#49000
1!
0#
b0 &
bx )
0*
b10000 +
b1 2
04
05
#50000
0!
#51000
1!
bx )
0*
#52000
0!
#53000
1!
b10000 &
bx )
0*
b111100 +
bx 2
#54000
0!
#55000
1!
b101 %
b0 &
b101 (
bx )
0*
b10000 +
b1 2
#56000
0!
#57000
1!
b0 %
b10000 &
b0 (
bx )
0*
b1000000 +
b1 2
#58000
0!
#59000
1!
b10011 &
bx )
0*
b0 +
b1 2
#60000
0!
#61000
1!
b0 &
bx )
0*
b1 2
#62000
0!
#63000
1!
1#
1$
b10000 &
bx )
0*
b11000000000 +
b1111 2
04
15
#64000
0!
#65000
1!
bx %
b0 &
bx (
bx )
0*
b11000101000 +
b1111 2
#66000
0!
#67000
1!
0#
0$
b0 &
bx (
bx )
0*
b111110100 +
b1 2
04
05
#68000
0!
#69000
1!
b10011 &
bx (
bx )
0*
b0 +
b1 2
#70000
0!
#71000
1!
b0 &
bx (
bx )
0*
b1 2
#72000
0!
#73000
1!
1#
b1000010000 &
bx )
0*
b11000101000 +
b1111 2
04
15
#74000
0!
#75000
1!
b0 %
b0 (
bx )
0*
#76000
0!
#77000
1!
0#
b10000000000000000000000000000 &
bx )
0*
b1111 +
b1000 2
04
05
#78000
0!
#79000
1!
b101 %
b0 &
b101 (
bx )
0*
b1001100 +
bx 2
#80000
0!
#81000
1!
b10011 &
bx )
0*
b0 +
b1 2
#82000
0!
#83000
1!
bx %
b0 &
bx (
bx )
0*
b1 2
#84000
0!
#85000
1!
1#
b1000010000 &
bx )
0*
b11000101000 +
b1111 2
04
15
#86000
0!
#87000
1!
b0 %
b0 (
bx )
0*
#88000
0!
#89000
1!
0#
b0 &
bx )
0*
b10000 +
b1 2
04
05
#90000
0!
#91000
1!
bx %
bx (
bx )
0*
#92000
0!
#93000
1!
b10000 &
bx )
0*
b1100100 +
bx 2
#94000
0!
#95000
1!
b0 &
bx (
bx )
0*
b10000 +
b1 2
#96000
0!
#97000
1!
b10000 &
bx (
bx )
0*
b1101000 +
b1 2
#98000
0!
#99000
1!
b0 %
b10011 &
b0 (
bx )
0*
b0 +
b1 2
#100000
0!
#101000
1!
bx %
b0 &
bx (
bx )
0*
b1 2
#102000
0!
#103000
1!
1#
1$
b10000 &
bx )
0*
b11000001000 +
b1111 2
04
15
#104000
0!
#105000
1!
b0 &
bx (
bx )
0*
b11000100100 +
b1111 2
#106000
0!
#107000
1!
0#
0$
b0 &
bx (
bx )
0*
b111011100 +
b1 2
04
05
#108000
0!
#109000
1!
b101 %
b10011 &
b101 (
bx )
0*
b0 +
b1 2
#110000
0!
#111000
1!
bx %
b0 &
bx (
bx )
0*
b1 2
#112000
0!
#113000
1!
1#
b0 &
bx )
0*
b11000100100 +
b1111 2
04
15
#114000
0!
#115000
1!
b0 %
b0 (
bx )
0*
#116000
0!
#117000
1!
0#
b10000000000000000000000000000 &
bx )
0*
b1111 +
b1000 2
04
05
#118000
0!
#119000
1!
b101 %
b0 &
b101 (
bx )
0*
b1110100 +
bx 2
#120000
0!
#121000
1!
b0 %
b10011 &
b0 (
bx )
0*
b0 +
b1 2
#122000
0!
#123000
1!
bx %
b0 &
bx (
bx )
0*
b1 2
#124000
0!
#125000
1!
1#
b0 &
bx )
0*
b11000100100 +
b1111 2
04
15
#126000
0!
#127000
1!
b0 %
b0 (
bx )
0*
#128000
0!
#129000
1!
0#
b0 &
bx )
0*
b10000 +
b1 2
04
05
#130000
0!
#131000
1!
bx %
b0 &
bx (
bx )
0*
b0 +
bx 2
#132000
0!
#133000
1!
b10000 &
bx )
0*
b1 +
bx 2
#134000
0!
#135000
1!
b0 &
bx )
0*
bx 2
#136000
0!
#137000
1!
1#
1$
b1 &
bx )
0*
b11000011100 +
b1 2
04
15
#138000
0!
#139000
1!
1#
0$
b0 &
bx (
bx )
0*
b11000100100 +
b1111 2
#140000
0!
#141000
1!
b0 %
b0 (
bx )
0*
#142000
0!
#143000
1!
0#
b10000 &
bx )
0*
b1 +
bx 2
04
05
#144000
0!
#145000
1!
bx %
b0 &
bx (
bx )
0*
bx 2
#146000
0!
#147000
1!
1#
1$
b100000000 &
bx )
0*
b11000011101 +
b10 2
04
15
#148000
0!
#149000
1!
1#
0$
bx00000001 %
b0 &
bx00000001 (
bx )
0*
b11000100100 +
b1111 2
#150000
0!
#151000
1!
b0 %
b0 (
bx )
0*
#152000
0!
#153000
1!
0#
b0 &
bx )
0*
b10000 +
b1 2
04
05
#154000
0!
#155000
1!
bx %
bx (
bx )
0*
#156000
0!
#157000
1!
b10000 &
bx )
0*
b10110100 +
bx 2
#158000
0!
#159000
1!
b0 %
b0 &
b0 (
bx )
0*
b10000 +
b1 2
#160000
0!
#161000
1!
bx %
b10000 &
bx (
bx )
0*
b10111000 +
b1 2
#162000
0!
#163000
1!
b10011 &
bx (
bx )
0*
b0 +
b1 2
#164000
0!
#165000
1!
b0 &
bx (
bx )
0*
b1 2
#166000
0!
#167000
1!
1#
1$
b10000 &
bx )
0*
b11000000100 +
b1111 2
04
15
#168000
0!
#169000
1!
1#
0$
b1000010000 &
bx (
bx )
0*
b11000101000 +
b1111 2
#170000
0!
#171000
1!
b0 %
b0 (
bx )
0*
#172000
0!
#173000
1!
b0 &
bx )
0*
b11000100100 +
b1111 2
#174000
0!
#175000
1!
b0 (
bx )
0*
#176000
0!
#177000
1!
0#
b0 &
bx )
0*
b0 +
b11 2
04
05
#178000
0!
#179000
1!
bx %
b0 &
bx (
bx )
0*
b1 2
#180000
0!
#181000
1!
bx )
0*
#182000
0!
#183000
1!
bx )
0*
#184000
0!
#185000
1!
bx )
0*
#186000
0!
#187000
1!
1#
1$
b0 &
bx )
0*
b11000010000 +
b1111 2
04
15
#188000
0!
#189000
1!
1#
0$
bx )
0*
b11000100100 +
#190000
0!
#191000
1!
b0 %
b0 (
bx )
0*
#192000
0!
#193000
1!
bx )
0*
b11000000100 +
#194000
0!
#195000
1!
b10000 %
b10000 (
bx )
0*
#196000
0!
#197000
1!
0#
b10000 &
bx )
0*
b10000 +
b1 2
04
05
#198000
0!
#199000
1!
bx %
b0 &
bx (
bx )
0*
b1111 +
b1000 2
#200000
0!
#201000
1!
1#
bx00000001 %
b0 &
bx00000001 (
bx )
0*
b11000100000 +
b1111 2
04
15
#202000
0!
#203000
1!
b0 %
b0 (
bx )
0*
#204000
0!
#205000
1!
0#
b0 &
bx )
0*
b11110000 +
b11 2
04
05
#206000
0!
#207000
1!
b0 &
bx )
0*
b1 2
#208000
0!
#209000
1!
bx )
0*
b100000000 +
#210000
0!
#211000
1!
b0 &
bx )
0*
b111110000 +
b1 2
#212000
0!
#213000
1!
b0 &
bx )
0*
b1 2
#214000
0!
#215000
1!
1#
1$
b111110000 &
bx )
0*
b11000010100 +
b1111 2
04
15
#216000
0!
#217000
1!
1#
0$
bx %
b1000010000 &
bx (
bx )
0*
b11000101000 +
b1111 2
#218000
0!
#219000
1!
b0 %
b0 (
bx )
0*
#220000
0!
#221000
1!
b0 &
bx )
0*
b11000100000 +
b1111 2
#222000
0!
#223000
1!
b0 (
bx )
0*
#224000
0!
#225000
1!
0#
b0 &
bx )
0*
b0 +
b11 2
04
05
#226000
0!
#227000
1!
b0 &
bx )
0*
b1 2
#228000
0!
#229000
1!
b1000000000 &
bx )
0*
b11 2
#230000
0!
#231000
1!
b0 &
bx )
0*
b1000000000 +
b1 2
#232000
0!
#233000
1!
b0 &
bx )
0*
b1 2
#234000
0!
#235000
1!
b0 &
bx )
0*
b1 2
#236000
0!
#237000
1!
1#
1$
b1000000000 &
bx )
0*
b11000011000 +
b1111 2
04
15
#238000
0!
#239000
1!
0#
0$
bx %
b0 &
bx (
bx )
0*
b10010000000000000000000000000000 +
b1 2
13
04
05
#240000
0!
#241000
1!
bx %
b0 (
bx )
1*
b10010000000000000000000000001100 +
#242000
0!
#243000
1!
bx %
bx00000001 (
bx )
1*
b10000 +
03
04
05
#244000
0!
#245000
1!
1#
1$
b0 %
b10000 &
b0 (
bx )
0*
b10010000000000000000000000001100 +
b1111 2
13
14
05
#246000
0!
#247000
1!
0#
0$
bx %
b0 &
bx00000001 (
bx )
1*
b10010000000000000000000000000000 +
bx ,
0-
0.
b1 2
04
05
#248000
0!
#249000
1!
bx %
b0 (
bx )
1*
b10010000000000000000000000010000 +
#250000
0!
#251000
1!
bx )
1*
b10000 +
03
04
05
#252000
0!
#253000
1!
1#
1$
b0 %
b10000 &
bx )
0*
b10010000000000000000000000010000 +
b1111 2
13
14
05
#254000
0!
#255000
1!
0#
0$
bx %
b0 &
bx )
1*
b10010000000000000000000000000000 +
bx ,
0-
0.
b1 2
04
05
#256000
0!
#257000
1!
1#
b0 &
bx )
1*
b11000010000 +
b1111 2
03
04
15
#258000
0!
#259000
1!
b0 %
bx )
0*
#260000
0!
#261000
1!
1#
1$
bx )
0*
b10010000000000000000000000000000 +
13
14
05
#262000
0!
#263000
1!
0#
0$
bx %
b0 &
bx )
1*
b1 2
04
05
#264000
0!
#265000
1!
bx )
1*
b10010000000000000000000000000100 +
#266000
0!
#267000
1!
1#
bx %
b0 &
bx (
bx )
1*
b11000010100 +
b1111 2
03
04
15
#268000
0!
#269000
1!
b111110000 %
b111110000 (
bx )
0*
#270000
0!
#271000
1!
1#
1$
b111110000 &
bx )
0*
b10010000000000000000000000000100 +
b1111 2
13
14
05
#272000
0!
#273000
1!
0#
0$
bx %
b0 &
bx )
1*
b10010000000000000000000000000000 +
bx ,
0-
0.
b1 2
04
05
#274000
0!
#275000
1!
bx %
b10000 &
b0 (
bx )
1*
b10010000000000000000000000001000 +
b1 2
#276000
0!
#277000
1!
1#
bx %
b0 &
bx (
bx )
1*
b11000011000 +
b1111 2
03
04
15
#278000
0!
#279000
1!
b1000000000 %
b1000000000 (
bx )
0*
#280000
0!
#281000
1!
1#
1$
b1000000000 &
bx )
0*
b10010000000000000000000000001000 +
b1111 2
13
14
05
#282000
0!
#283000
1!
1#
0$
bx %
b0 &
b0 '
bx )
1*
b11000011101 +
bx 2
03
04
15
#284000
0!
#285000
1!
bx0000000100000001 %
bx0000000100000001 (
b0 )
0*
#286000
0!
#287000
1!
0#
b100000000000000000000 &
b0 )
0*
b10 +
b1100 2
04
05
#288000
0!
#289000
1!
1#
b0 %
b0 &
b0 (
b0 )
0*
b11000011100 +
bx 2
04
15
#290000
0!
#291000
1!
bx0000000100000001 %
bx0000000100000001 (
b0 )
0*
#292000
0!
#293000
1!
0#
b1 &
b0 )
0*
b11 +
bx 2
04
05
#294000
0!
#295000
1!
b0 %
b0 &
b0 (
b0 )
0*
b10010000000000000000000000000000 +
b1 2
13
04
05
#296000
0!
#297000
1!
b0 %
b0 )
1*
b10010000000000000000000000010100 +
#298000
0!
#299000
1!
1#
1$
b0 %
b11 &
b111110000 (
b0 )
1*
b1111 2
14
05
#300000
0!
#301000
1!
1#
0$
b0 &
b0 '
b0 )
1*
b11000000100 +
bx ,
0-
0.
b1111 2
03
04
15
#302000
0!
#303000
1!
b10000 %
b10000 (
b0 )
0*
#304000
0!
#305000
1!
0#
b0 &
b0 )
0*
b1000000000 +
b11 2
04
05
#306000
0!
#307000
1!
1#
b0 %
b1000010000 &
b0 (
b0 )
0*
b11000001000 +
b1111 2
04
15
#308000
0!
#309000
1!
b10000 %
b10000 (
b0 )
0*
#310000
0!
#311000
1!
0#
b10000 &
b0 )
0*
b1000010000 +
bx 2
04
05
#312000
0!
#313000
1!
1#
b0 %
b0 &
b0 (
b0 )
0*
b11000000000 +
b1111 2
04
15
#314000
0!
#315000
1!
b10000 %
b10000 (
b0 )
0*
#316000
0!
#317000
1!
0#
b0 &
b0 )
0*
b100000000000000 +
b11 2
04
05
#318000
0!
#319000
1!
b0 &
b0 )
0*
b10010000000000000000000000000000 +
b1 2
13
04
05
#320000
0!
#321000
1!
b0 %
b0 )
1*
b10010000000000000000000000011000 +
#322000
0!
#323000
1!
b100000000000000 &
b10000 (
b0 )
1*
b100001000010000 +
bx 2
03
04
05
#324000
0!
#325000
1!
1#
1$
b10000 %
b100001000010000 &
b10000 (
b0 )
0*
b10010000000000000000000000011000 +
b1111 2
13
14
05
#326000
0!
#327000
1!
0#
0$
b0 %
b0 &
b10000 (
b0 )
1*
b0 +
bx ,
0-
0.
b1 2
03
04
05
#328000
0!
#329000
1!
b10000 %
b10000 (
b0 )
0*
b10010000000000000000000000000000 +
b10000 ,
0-
1.
b111110000 /
13
04
05
#330000
0!
#331000
1!
1#
b0 %
b0 &
b0 '
b0 )
1*
b10000 ,
0-
1.
b111100000 /
b101000000010000011000000010000000000000000000000010000001100000001100000101000000000000000000000110000000100000001100000100 0
b1111 2
14
05
#332000
0!
#333000
1!
b0 )
1*
b10000 ,
0-
1.
b111010000 /
b10000001100000010100000101000000010000001000000101000000010000010000000010000000100000000100000100000001010000000000000000 0
#334000
0!
#335000
1!
0#
b1000000000000 &
b0 )
1*
b1 +
b10000 ,
0-
1.
b111000000 /
b10000000010000000000000101000000100000010000000110000001010000000000000100000001010000011000000100000000100000010100000100 0
b10 2
03
04
05
#336000
0!
#337000
1!
b10000 %
b1 &
b0 )
0*
b111000000 +
b10000 ,
0-
1.
b110110000 /
b110000000110000000100000010000000100000000100000000000000100000000100000010000001000000000100000100000000000000000000000100 0
b1 2
#338000
0!
#339000
1!
1#
b0 &
b0 )
0*
b11000100100 +
b10000 ,
0-
1.
b110100000 /
b100000000110000000000000000000001100000001000000011000000100000010100000101000000010000001100000010000000010000001000000101 0
b1111 2
04
15
#340000
0!
#341000
1!
b0 %
b0 (
b0 )
0*
b10000 ,
0-
1.
b110010000 /
b101000000010000001000000010000001000000010000000100000001010000001100000000000001000000000000000100000001000000000100000100 0
#342000
0!
#343000
1!
0#
b0 &
b0 )
0*
b10000 +
b10000 ,
0-
1.
b110000000 /
b110000000100000110000001010000000000000100000000000000000100000110000000000000010000000000000000010000010000000110 0
b1 2
04
05
#344000
0!
#345000
1!
1#
1$
b10000 %
b10000 &
b10000 (
b0 )
0*
b11000100100 +
b10000 ,
0-
1.
b101110000 /
b100000000110000010000000000000000000000001000000101000000000000010000000101000001000000000000000001000000100000000100000001 0
b1111 2
04
15
#346000
0!
#347000
1!
1#
0$
b0 %
b0 &
b0 (
b0 )
0*
b10000 ,
0-
1.
b101100000 /
b11000001010000010100000100000001100000010100000101000000110000001000000011000001100000011000000010000000110000000000000011 0
b1111 2
#348000
0!
#349000
1!
b10000 %
b10000 (
b0 )
0*
b10000 ,
0-
1.
b101010000 /
b1000000000000001100000110000000010000001100000011000000110000000100000001000001100000011000000000000000000000011000000100 0
#350000
0!
#351000
1!
0#
b0 &
b0 )
0*
b1111 +
b10000 ,
0-
1.
b101000000 /
b101000000000000000000000100000001100000011000000110000000110000000000000110000000010000001100000010000000010000001100000001 0
b1000 2
04
05
#352000
0!
#353000
1!
bx0000000100000001 %
b10000 &
bx0000000100000001 (
b0 )
0*
b1110100 +
b10000 ,
0-
1.
b100110000 /
b11000001000000000100000001000000010000000000000110000001100000001000000101000000110000000000000000000001010000010100000101 0
bx 2
#354000
0!
#355000
1!
b10000 %
b10011 &
b10000 (
b0 )
0*
b0 +
b10000 ,
0-
1.
b100100000 /
b1010000011000000011000000110000001100000010000000110000010100000000000000000000000100000011000001100000001100000110 0
b1 2
#356000
0!
#357000
1!
b0 &
b10000 (
b0 )
0*
b10000 ,
0-
1.
b100010000 /
b1000000110000010000000100000001010000000100000100000000010000001100000101000000100000000100000100000000000000001000000110 0
b1 2
#358000
0!
#359000
1!
1#
b0 &
b0 )
0*
b11000100100 +
b10000 ,
0-
1.
b100000000 /
b100000000000001010000010100000000000000000000000100000100000000010000010000000100000000000000001000000000 0
b1111 2
04
15
#360000
0!
#361000
1!
b10000 (
b0 )
0*
b10000 ,
0-
1.
b0 /
b1000000010000000000000011000001000000001100000010000001010000010100000011000000100000010100000001000001010000010100000110 0
#362000
0!
#363000
1!
0#
b0 &
b0 )
0*
b100000 +
b10000 ,
0-
1.
b10000 /
b11000001000000000000000100000001010000010100000000000001010000000100000001000000010000001000000101000000000000000000000101 0
b1 2
04
05
#364000
0!
#365000
1!
b0 &
b10000 (
b0 )
0*
b0 +
b10000 ,
0-
1.
b100000 /
b1000000110000010000000101000001010000010100000001000001000000000000000100000001000000000100000001000000000000000000000000 0
bx 2
#366000
0!
#367000
1!
b10000 &
b0 )
0*
b1 +
b10000 ,
0-
1.
b110000 /
b110000000010000000100000010000000100000001100000101000000010000011000000110000000000000011000000110000000100000010000000011 0
bx 2
#368000
0!
#369000
1!
b0 &
b0 )
0*
b10000 ,
0-
1.
b1000000 /
b1000000001100000101000000000000011000000010000001000000001000000110000000100000000000000011000000000000000000000010 0
bx 2
#370000
0!
#371000
1!
1#
1$
b1 &
b0 )
0*
b11000011100 +
b10000 ,
0-
1.
b1010000 /
b1000001010000000000000000000001010000000100000100000000100000011000000100000001010000011000000010000001000000000000000011 0
b1 2
04
15
#372000
0!
#373000
1!
1#
0$
bx0000000100000001 %
b0 &
bx0000000100000001 (
b0 )
0*
b11000100100 +
b10000 ,
0-
1.
b1100000 /
b10000000100000000100000010000001100000010100000011000000100000001100000000000001100000000100000110000000000000001000000110 0
b1111 2
#374000
0!
#375000
1!
b10000 %
b10000 (
b0 )
0*
b10000 ,
0-
1.
b1110000 /
b11000000110000000100000001000001010000010000000001000001010000010000000000000001010000010100000101000000100000010100000001 0
#376000
0!
#377000
1!
0#
b10000 &
b0 )
0*
b0 +
b10000 ,
0-
1.
b10000000 /
b10000001100000000000000110000000010000000000000110000001100000011000000010000001010000000100000100000001010000010100000010 0
bx 2
04
05
#378000
0!
#379000
1!
b0 &
b10000 (
b0 )
0*
b10000 ,
0-
1.
b10010000 /
b1000000100000000100000011000001010000001100000011000001010000000100000010000001010000010000000001000000000000001000000011 0
bx 2
#380000
0!
#381000
1!
1#
1$
b0 &
b0 )
0*
b11000011101 +
b10000 ,
0-
1.
b10100000 /
b110000010000000001000000010000001000000011000001000000001100000100000001010000001000000100000001000000010100000001 0
b10 2
04
15
#382000
0!
#383000
1!
1#
0$
bx0000000100000001 %
b0 &
bx0000000100000001 (
b0 )
0*
b11000100100 +
b10000 ,
0-
1.
b10110000 /
b11000001000000001100000011000000000000010000000011000001010000011000000001000001010000000100000000000001100000000000000110 0
b1111 2
#384000
0!
#385000
1!
b10000 %
b10000 (
b0 )
0*
b10000 ,
0-
1.
b11000000 /
b100000010100000110000000100000011000000100000001010000000000000101000001010000000000000110000001000000001000000100 0
#386000
0!
#387000
1!
0#
b0 &
b0 )
0*
b100000 +
b10000 ,
0-
1.
b11010000 /
b10000001010000011000000000000001000000000100000110000001000000001000000101000001010000000000000011000000010000001100000010 0
b1 2
04
05
#388000
0!
#389000
1!
b10000 (
b0 )
0*
b10000 +
b10000 ,
0-
1.
b11100000 /
b11000000100000010000000000000001000000011000000100000000010000011000000010000000010000000100000100000001000000010100000110 0
#390000
0!
#391000
1!
b100000 &
b0 )
0*
b10110100 +
b10000 ,
0-
1.
bx /
b1100000001100000101000000000000000000000100000000010000000000000001000000100000011000000110000000100000000000000000 0
bx 2
#392000
0!
#393000
1!
b0 &
b10000 (
b0 )
0*
b10000 +
bx ,
1-
0.
bx /
bx 0
b1 2
#394000
0!
#395000
1!
b10000 &
b10000 (
b0 )
0*
b10111000 +
b1 2
#396000
0!
#397000
1!
b10011 &
b10000 (
b0 )
0*
b0 +
b1 2
#398000
0!
#399000
1!
b0 &
b10000 (
b0 )
0*
b1 2
#400000
0!
#401000
1!
1#
1$
b10000 &
b0 )
0*
b11000000100 +
b1111 2
04
15
#402000
0!
#403000
1!
1#
0$
b1000010000 &
b10000 (
b0 )
0*
b11000101000 +
b10000 ,
1-
1.
b1000000000 /
b1101101000000000000000000000000100000100000000000000000000000000101100000000000000000000000000010011100 1
b1111 2
#404000
0!
#405000
1!
b0 %
b0 (
b0 )
0*
bx ,
1-
0.
bx /
b1110000000000000000000000000000011100000000000000000000000000000111 0
#406000
0!
#407000
1!
b0 &
b0 )
0*
b11000100100 +
bx 0
b1111 2
#408000
0!
#409000
1!
b10000 %
b10000 (
b0 )
0*
#410000
0!
#411000
1!
0#
b0 &
b0 )
0*
b0 +
b10000 ,
1-
1.
b1000010000 /
b10010010000000000000000000000000011101000000000000000000000000000110001000000000000000000000000001000100 1
b11 2
04
05
#412000
0!
#413000
1!
b10000 &
b10000 (
b0 )
0*
b10000 +
bx ,
1-
0.
bx /
b1000000000000000000000000000000010000000000000000000000000000000100000000000000000000000000000010 0
b1 2
#414000
0!
#415000
1!
b0 &
b0 )
0*
b0 +
bx 0
b1 2
#416000
0!
#417000
1!
b0 )
0*
b10000 +
#418000
0!
#419000
1!
b0 )
0*
b10000 ,
1-
1.
b1000100000 /
b1110000000000000000000000000000011000000000000000000000000000001000010000000000000000000000000001111110 1
#420000
0!
#421000
1!
1#
1$
b10000 &
b0 )
0*
b11000010000 +
bx ,
1-
0.
bx /
b101000000000000000000000000000001010000000000000000000000000000000000000000000000000000000000000101 0
b1111 2
04
15
#422000
0!
#423000
1!
1#
0$
b0 %
b0 &
b0 (
b0 )
0*
b11000100100 +
bx 0
b1111 2
#424000
0!
#425000
1!
b10000 %
b10000 (
b0 )
0*
#426000
0!
#427000
1!
b0 )
0*
b11000000100 +
b10000 ,
1-
1.
b1000110000 /
b10000100000000000000000000000000011101010000000000000000000000000111000000000000000000000000000001011010 1
#428000
0!
#429000
1!
b0 )
0*
b10000 ,
1-
1.
b1001000000 /
b11000000000000000000000000000001000000000000000000000000000000000000000000000000000000000000000100 0
b1100011000000000000000000000000010010100000000000000000000000000101101000000000000000000000000001111110 1
#430000
0!
#431000
1!
0#
b10000 &
b0 )
0*
b100000 +
b1001010000 /
b1000000000000000000000000000000000000000000000000000000000000000000000000000000000000000000000000 0
b1011000000000000000000000000000011110010000000000000000000000000111011000000000000000000000000001011000 1
b1 2
04
05
#432000
0!
#433000
1!
b0 %
b0 &
b0 (
b0 )
0*
b11111 +
b1001100000 /
b1000000000000000000000000000000010000000000000000000000000000000001 0
b1101100000000000000000000000000011010000000000000000000000000001001000000000000000000000000000001101011 1
b1000 2
#434000
0!
#435000
1!
1#
bx0000000100000001 %
b0 &
bx0000000100000001 (
b0 )
0*
b11000100000 +
b10000 ,
1-
1.
b1001110000 /
b101000000000000000000000000000001010000000000000000000000000000000100000000000000000000000000000100 0
b10001001000000000000000000000000010100100000000000000000000000000100100000000000000000000000000001101011 1
b1111 2
04
15
#436000
0!
#437000
1!
b0 %
b0 (
b0 )
0*
b10000 ,
1-
1.
b1010000000 /
b1000000000000000000000000000000110000000000000000000000000000010000000000000000000000000000000101 0
b1111110000000000000000000000000100010110000000000000000000000001010001000000000000000000000000011100011 1
#438000
0!
#439000
1!
0#
b0 &
b0 )
0*
b111110000 +
b1010010000 /
b110000000000000000000000000000000100000000000000000000000000000010000000000000000000000000000000011 0
b10001001000000000000000000000000101011100000000000000000000000001000100100000000000000000000000010010010 1
b11 2
04
05
#440000
0!
#441000
1!
b0 &
b0 )
0*
b1010100000 /
b110000000000000000000000000000001100000000000000000000000000000000000000000000000000000000000000110 0
b10100100000000000000000000000000011110110000000000000000000000001011000000000000000000000000000010101100 1
b1 2
#442000
0!
#443000
1!
b0 )
0*
b100000000 +
b10000 ,
1-
1.
b1010110000 /
b10000000000000000000000000000000110000000000000000000000000000010100000000000000000000000000000001 0
b1111000000000000000000000000000100010110000000000000000000000001010000000000000000000000000000010100011 1
#444000
0!
#445000
1!
b0 &
b0 )
0*
b1011110000 +
b10000 ,
1-
1.
b1011000000 /
b110000000000000000000000000000000010000000000000000000000000000000100000000000000000000000000000010 0
b1011111000000000000000000000000011000000000000000000000000000000101111000000000000000000000000010000110 1
b1 2
#446000
0!
#447000
1!
b0 &
b0 )
0*
b1011010000 /
b11000000000000000000000000000000000000000000000000000000000000000000000000000000000000000000000010 0
b1011100000000000000000000000000010111000000000000000000000000001000100100000000000000000000000001100110 1
b1 2
#448000
0!
#449000
1!
1#
1$
b1011110000 &
b0 )
0*
b11000010100 +
b1011100000 /
b10000000000000000000000000000001100000000000000000000000000000001000000000000000000000000000000000 0
b1100101000000000000000000000000011100000000000000000000000000001000110000000000000000000000000001101100 1
b1111 2
04
15
#450000
0!
#451000
1!
1#
0$
b111110000 %
b1000010000 &
b111110000 (
b0 )
0*
b11000101000 +
b10000 ,
1-
1.
b1011110000 /
b1100000000000000000000000000000001000000000000000000000000000000100 0
b1110010000000000000000000000000010111010000000000000000000000000110010100000000000000000000000010001000 1
b1111 2
#452000
0!
#453000
1!
b0 %
b0 (
b0 )
0*
b10000 ,
1-
1.
b1100000000 /
b1000000000000000000000000000000001100000000000000000000000000000101 0
b1011001000000000000000000000000011111000000000000000000000000001000001000000000000000000000000010110110 1
#454000
0!
#455000
1!
b0 &
b0 )
0*
b11000100000 +
b1100010000 /
b10000000000000000000000000000001000000000000000000000000000000000000000000000000000000000000000011 0
b10000000000000000000000000000000101110010000000000000000000000000111110000000000000000000000000010000100 1
b1111 2
#456000
0!
#457000
1!
b0 (
b0 )
0*
b1100100000 /
b110000000000000000000000000000001000000000000000000000000000000010100000000000000000000000000000110 0
b10101101000000000000000000000000011101110000000000000000000000001100111000000000000000000000000010000100 1
#458000
0!
#459000
1!
0#
b0 &
b0 )
0*
b0 +
b10000 ,
1-
1.
b1100110000 /
b101000000000000000000000000000000010000000000000000000000000000010000000000000000000000000000000010 0
b1111000000000000000000000000000100100000000000000000000000000000111100100000000000000000000000010011110 1
b11 2
04
05
#460000
0!
#461000
1!
b0 &
b0 )
0*
b10000 ,
1-
1.
b1101000000 /
b1000000000000000000000000000001010000000000000000000000000000000000000000000000000000000000000000 0
b1110100000000000000000000000000100001110000000000000000000000000111010100000000000000000000000010110110 1
b1 2
#462000
0!
#463000
1!
b1000000000 &
b0 )
0*
b1101010000 /
b110000000000000000000000000000000000000000000000000000000000000001000000000000000000000000000000110 0
b10001110000000000000000000000000100111000000000000000000000000000101110000000000000000000000000001111000 1
b11 2
#464000
0!
#465000
1!
b0 &
b0 )
0*
b1000000000 +
b1101100000 /
b11000000000000000000000000000000000000000000000000000000000000011000000000000000000000000000000001 0
b10111010000000000000000000000000100011110000000000000000000000001010000100000000000000000000000010001101 1
b1 2
#466000
0!
#467000
1!
b0 &
b0 )
0*
b10000 ,
1-
1.
b1101110000 /
b110000000000000000000000000000001010000000000000000000000000000001100000000000000000000000000000010 0
b10000101000000000000000000000000011100100000000000000000000000000110001100000000000000000000000001111100 1
b1 2
