WHOLE/WHOLE.sim/sim_1/behav/xsim/tb_top_dump.vcd
$date
   Wed Apr  3 20:23:23 2024
$end
$version
  2019.2
$end
$timescale
  1ps
$end
$scope module tb_top $end
$scope module DUT $end
$var wire 1 ! clk $end
$var wire 1 " rst $end
$var reg 1 # system_bus_en $end
$var reg 1 $ system_bus_rdwr $end
$var reg 32 % system_bus_rd_data [31:0] $end
$var reg 32 & system_bus_wr_data [31:0] $end
$var reg 32 ' gemm_conf_read [31:0] $end
$var reg 32 ( mem_read_data [31:0] $end
$var reg 32 ) gemm_conf_read_ppl [31:0] $end
$var reg 1 * is_gemm_addr_late $end
$var reg 32 + system_bus_addr [31:0] $end
$var reg 5 , interface_control [4:0] $end
$var reg 1 - interface_rdwr $end
$var reg 1 . interface_en $end
$var reg 32 / interface_addr [31:0] $end
$var reg 128 0 interface_rd_data [127:0] $end
$var reg 128 1 interface_wr_data [127:0] $end
$var reg 4 2 system_bus_mask [3:0] $end
$var wire 1 3 is_gemm_addr $end
$var wire 1 4 en_gemm_conf $end
$var wire 1 5 en_Dmem $end
$upscope $end
$upscope $end
$enddefinitions $end
#0
$dumpvars
0!
1"
x#
x$
bx %
bx &
bx '
bx (
bx )
x*
bx +
bx ,
0-
0.
bx /
bx 0
bx 1
bx 2
x3
x4
x5
$end
#1000
1!
0#
0$
b10011 &
bx (
bx )
x*
b0 +
bx ,
0-
0.
b0 /
b1 2
03
04
05
#2000
0!
#3000
1!
0"
bx %
bx (
bx )
0*
bx 0
#4000
0!
#5000
1!
b0 &
bx )
0*
b1 2
#6000
0!
#7000
1!
b0 &
bx )
0*
b1000000000000 +
b11 2
#8000
0!
#9000
1!
b0 &
bx )
0*
b100000000000 +
b1 2
#10000
0!
#11000
1!
bx )
0*
b0 +
#12000
0!
#13000
1!
bx )
0*
#14000
0!
#15000
1!
bx )
0*
b10100 +
#16000
0!
#17000
1!
b10011 &
bx (
bx )
0*
b0 +
b1 2
#18000
0!
#19000
1!
b0 &
bx (
bx )
0*
bx ,
0-
0.
b1 2
#20000
0!
#21000
1!
bx )
0*
b11110110000 +
#22000
0!
#23000
1!
1#
1$
b0 &
bx )
0*
b11111111100 +
b1111 2
04
15
#24000
0!
#25000
1!
0#
0$
b0 &
bx (
bx )
0*
b100000000000 +
b1 2
04
05
#26000
0!
#27000
1!
b0 &
bx (
bx )
0*
b11 +
b1000 2
#28000
0!
#29000
1!
1#
1$
b11 &
bx )
0*
b11111101100 +
b1111 2
04
15
#30000
0!
#31000
1!
0#
0$
b0 &
bx (
bx )
0*
b11 +
b1000 2
04
05
#32000
0!
#33000
1!
1#
1$
b11 &
bx (
bx )
0*
b11111101000 +
b1111 2
04
15
#34000
0!
#35000
1!
0#
0$
b0 &
bx (
bx )
0*
b11 +
b1000 2
04
05
#36000
0!
#37000
1!
1#
1$
b11 &
bx (
bx )
0*
b11111100100 +
b1111 2
04
15
#38000
0!
#39000
1!
b0 &
bx (
bx )
0*
b11111100000 +
b1111 2
#40000
0!
#41000
1!
bx (
bx )
0*
b11111011100 +
#42000
0!
#43000
1!
bx (
bx )
0*
b11111011000 +
#44000
0!
#45000
1!
0#
0$
b0 &
bx (
bx )
0*
b1001001100 +
b1 2
04
05
#46000
0!
#47000
1!
b10011 &
bx (
bx )
0*
b0 +
b1 2
#48000
0!
#49000
1!
b0 &
bx (
bx )
0*
b1 2
#50000
0!
#51000
1!
1#
b0 &
bx )
0*
b11111101100 +
b1111 2
04
15
#52000
0!
#53000
1!
b11 %
b11 (
bx )
0*
#54000
0!
#55000
1!
0#
b0 &
bx )
0*
b1001000 +
b11 2
04
05
#56000
0!
#57000
1!
bx %
b10011 &
bx (
bx )
0*
b0 +
b1 2
#58000
0!
#59000
1!
b0 &
bx (
bx )
0*
b1 2
#60000
0!
#61000
1!
1#
b0 &
bx )
0*
b11111101100 +
b1111 2
04
15
#62000
0!
#63000
1!
b11 %
b11 (
bx )
0*
#64000
0!
#65000
1!
0#
b0 &
bx )
0*
b10000 +
b1 2
04
05
#66000
0!
#67000
1!
bx %
b11 &
bx (
bx )
0*
b1011000 +
bx 2
#68000
0!
#69000
1!
b10011 &
bx (
bx )
0*
b0 +
b1 2
#70000
0!
#71000
1!
b0 &
bx (
bx )
0*
b1 2
#72000
0!
#73000
1!
1#
1$
b11 &
bx )
0*
b11111010100 +
b1111 2
04
15
#74000
0!
#75000
1!
0#
0$
b0 &
bx (
bx )
0*
b1000011100 +
b1 2
04
05
#76000
0!
#77000
1!
b11 %
b10011 &
b11 (
bx )
0*
b0 +
b1 2
#78000
0!
#79000
1!
bx %
b0 &
bx (
bx )
0*
b1 2
#80000
0!
#81000
1!
1#
b100000000000 &
bx )
0*
b11111101000 +
b1111 2
04
15
#82000
0!
#83000
1!
b11 %
b11 (
bx )
0*
#84000
0!
#85000
1!
0#
b0 &
bx )
0*
b1100000 +
b11 2
04
05
#86000
0!
#87000
1!
bx %
b10011 &
bx (
bx )
0*
b0 +
b1 2
#88000
0!
#89000
1!
b0 &
bx )
0*
b1 2
#90000
0!
#91000
1!
1#
b100000000000 &
bx )
0*
b11111101000 +
b1111 2
04
15
#92000
0!
#93000
1!
b11 %
b11 (
bx )
0*
#94000
0!
#95000
1!
0#
b0 &
bx )
0*
b10000 +
b1 2
04
05
#96000
0!
#97000
1!
bx %
b11 &
bx (
bx )
0*
b1110000 +
bx 2
#98000
0!
#99000
1!
b10011 &
bx )
0*
b0 +
b1 2
#100000
0!
#101000
1!
b0 &
bx )
0*
b1 2
#102000
0!
#103000
1!
1#
1$
b11 &
bx )
0*
b11111010000 +
b1111 2
04
15
#104000
0!
#105000
1!
0#
0$
b0 &
bx )
0*
b111101100 +
b1 2
04
05
#106000
0!
#107000
1!
b11 %
b10011 &
b11 (
bx )
0*
b0 +
b1 2
#108000
0!
#109000
1!
bx %
b0 &
bx (
bx )
0*
b1 2
#110000
0!
#111000
1!
1#
b0 &
bx )
0*
b11111100100 +
b1111 2
04
15
#112000
0!
#113000
1!
b11 %
b11 (
bx )
0*
#114000
0!
#115000
1!
0#
b0 &
bx )
0*
b1111000 +
b11 2
04
05
#116000
0!
#117000
1!
b10011 &
b11 (
bx )
0*
b0 +
b1 2
#118000
0!
#119000
1!
bx %
b0 &
bx (
bx )
0*
b1 2
#120000
0!
#121000
1!
1#
b0 &
bx )
0*
b11111100100 +
b1111 2
04
15
#122000
0!
#123000
1!
b11 %
b11 (
bx )
0*
#124000
0!
#125000
1!
0#
b0 &
bx )
0*
b10000 +
b1 2
04
05
#126000
0!
#127000
1!
bx %
b11 &
bx (
bx )
0*
b10001000 +
bx 2
#128000
0!
#129000
1!
b11 %
b10011 &
b11 (
bx )
0*
b0 +
b1 2
#130000
0!
#131000
1!
bx %
b0 &
bx (
bx )
0*
b1 2
#132000
0!
#133000
1!
1#
1$
b11 &
bx )
0*
b11111001100 +
b1111 2
04
15
#134000
0!
#135000
1!
1#
0$
b0 &
bx (
bx )
0*
b11111011000 +
b1111 2
#136000
0!
#137000
1!
b0 %
b0 (
bx )
0*
#138000
0!
#139000
1!
0#
b0 &
bx )
0*
b10000 +
b1 2
04
05
#140000
0!
#141000
1!
bx %
b0 &
bx (
bx )
0*
b0 +
bx 2
#142000
0!
#143000
1!
b10100 &
bx )
0*
b1 +
bx 2
#144000
0!
#145000
1!
1#
1$
b1000000000000000000000000 &
bx )
0*
b11111001011 +
b1000 2
04
15
#146000
0!
#147000
1!
1#
0$
b0 &
bx (
bx )
0*
b11111011100 +
b1111 2
#148000
0!
#149000
1!
b0 %
b0 (
bx )
0*
#150000
0!
#151000
1!
0#
b0 &
bx )
0*
b0 +
b1 2
04
05
#152000
0!
#153000
1!
bx %
b10100 &
bx (
bx )
0*
b11 2
#154000
0!
#155000
1!
b0 &
bx )
0*
b1 2
#156000
0!
#157000
1!
1#
b0 &
bx )
0*
b11111011000 +
b1111 2
04
15
#158000
0!
#159000
1!
b0 %
b0 (
bx )
0*
#160000
0!
#161000
1!
0#
b0 &
bx )
0*
b0 +
b1 2
04
05
#162000
0!
#163000
1!
bx %
bx (
bx )
0*
#164000
0!
#165000
1!
bx )
0*
#166000
0!
#167000
1!
1#
1$
b0 &
bx )
0*
b11111000100 +
b1111 2
04
15
#168000
0!
#169000
1!
1#
0$
bx (
bx )
0*
b11111011000 +
#170000
0!
#171000
1!
b0 %
b0 (
bx )
0*
#172000
0!
#173000
1!
bx )
0*
b11111001100 +
#174000
0!
#175000
1!
b11 %
b11 (
bx )
0*
#176000
0!
#177000
1!
0#
b11000000000000000000000000 &
bx )
0*
b11 +
b1000 2
04
05
#178000
0!
#179000
1!
bx %
b0 &
bx (
bx )
0*
b10 +
b100 2
#180000
0!
#181000
1!
bx )
0*
#182000
0!
#183000
1!
b10100 &
bx )
0*
b100 +
b11 2
#184000
0!
#185000
1!
b100000000000000000 &
bx (
bx )
0*
b110 +
b100 2
#186000
0!
#187000
1!
1#
b0 &
bx )
0*
b11111100000 +
b1111 2
04
15
#188000
0!
#189000
1!
b0 %
b0 (
bx )
0*
#190000
0!
#191000
1!
0#
b0 &
bx )
0*
b110 +
b100 2
04
05
#192000
0!
#193000
1!
bx %
b0 &
bx (
bx )
0*
b1100 +
b1 2
#194000
0!
#195000
1!
b11 %
b11000000000000000000 &
b11 (
bx )
0*
b10010 +
b100 2
#196000
0!
#197000
1!
1#
1$
b0 %
b10010 &
b0 (
bx )
0*
b11111000000 +
b1111 2
04
15
#198000
0!
#199000
1!
1#
0$
bx %
b0 &
bx (
bx )
0*
b11111011100 +
b1111 2
#200000
0!
#201000
1!
b0 %
b0 (
bx )
0*
#202000
0!
#203000
1!
0#
b0 &
bx )
0*
b0 +
b1 2
04
05
#204000
0!
#205000
1!
bx %
b10100 &
bx (
bx )
0*
b11 2
#206000
0!
#207000
1!
b0 &
bx )
0*
b1 2
#208000
0!
#209000
1!
1#
b0 &
bx )
0*
b11111100000 +
b1111 2
04
15
#210000
0!
#211000
1!
b0 %
b0 (
bx )
0*
#212000
0!
#213000
1!
0#
b0 &
bx )
0*
b0 +
b1 2
04
05
#214000
0!
#215000
1!
b11110110000 &
bx )
0*
b11 2
#216000
0!
#217000
1!
b0 &
bx )
0*
b11000 +
b1 2
#218000
0!
#219000
1!
b11000 &
b0 (
bx )
0*
b1 2
#220000
0!
#221000
1!
1#
1$
b11000 &
bx )
0*
b11110111100 +
b1111 2
04
15
#222000
0!
#223000
1!
0#
0$
bx %
b0 &
bx (
bx )
0*
b10010000000000000000000000000000 +
b1 2
13
04
05
#224000
0!
#225000
1!
bx %
b0 (
bx )
1*
b10010000000000000000000000001100 +
#226000
0!
#227000
1!
bx %
b0 &
bx (
bx )
1*
b11 +
b1000 2
03
04
05
#228000
0!
#229000
1!
1#
1$
b0 %
b11 &
b0 (
bx )
0*
b10010000000000000000000000001100 +
b1111 2
13
14
05
#230000
0!
#231000
1!
0#
0$
bx %
b0 &
bx (
bx )
1*
b10010000000000000000000000000000 +
bx ,
0-
0.
b1 2
04
05
#232000
0!
#233000
1!
bx %
b0 (
bx )
1*
b10010000000000000000000000010000 +
#234000
0!
#235000
1!
b0 &
bx )
1*
b11 +
b1000 2
03
04
05
#236000
0!
#237000
1!
1#
1$
b0 %
b11 &
bx )
0*
b10010000000000000000000000010000 +
b1111 2
13
14
05
#238000
0!
#239000
1!
0#
0$
bx %
b0 &
bx )
1*
b10010000000000000000000000000000 +
bx ,
0-
0.
b1 2
04
05
#240000
0!
#241000
1!
1#
b0 &
bx )
1*
b11111000100 +
b1111 2
03
04
15
#242000
0!
#243000
1!
b0 %
b0 (
bx )
0*
#244000
0!
#245000
1!
1#
1$
bx )
0*
b10010000000000000000000000000000 +
13
14
05
#246000
0!
#247000
1!
0#
0$
bx %
b0 &
b0 (
bx )
1*
b1 2
04
05
#248000
0!
#249000
1!
bx )
1*
b10010000000000000000000000000100 +
#250000
0!
#251000
1!
1#
b0 &
b0 (
bx )
1*
b11111000000 +
b1111 2
03
04
15
#252000
0!
#253000
1!
b10010 %
b10010 (
bx )
0*
#254000
0!
#255000
1!
1#
1$
b10010 &
bx )
0*
b10010000000000000000000000000100 +
b1111 2
13
14
05
#256000
0!
#257000
1!
0#
0$
bx %
b0 &
b0 (
bx )
1*
b10010000000000000000000000000000 +
bx ,
0-
0.
b1 2
04
05
#258000
0!
#259000
1!
bx %
b0 &
b10010 (
bx )
1*
b10010000000000000000000000001000 +
b1 2
#260000
0!
#261000
1!
1#
bx %
b0 &
b0 (
bx )
1*
b11110111100 +
b1111 2
03
04
15
#262000
0!
#263000
1!
b11000 %
b11000 (
bx )
0*
#264000
0!
#265000
1!
1#
1$
b11000 &
bx )
0*
b10010000000000000000000000001000 +
b1111 2
13
14
05
#266000
0!
#267000
1!
1#
0$
bx %
b0 &
b0 '
b0 (
bx )
1*
b11111011000 +
b1111 2
03
04
15
#268000
0!
#269000
1!
b0 %
b0 )
0*
#270000
0!
#271000
1!
0#
b0 &
b0 )
0*
b101111000 +
b11 2
04
05
#272000
0!
#273000
1!
b101100000000000000000000 &
b0 )
0*
b10 +
b100 2
#274000
0!
#275000
1!
b10010 %
b0 &
b10010 (
b0 )
0*
b101111100 +
b1 2
#276000
0!
#277000
1!
b11000 %
b10011 &
b11000 (
b0 )
0*
b0 +
b1 2
#278000
0!
#279000
1!
b10010 %
b0 &
b10010 (
b0 )
0*
b1 2
#280000
0!
#281000
1!
1#
b0 &
b0 )
0*
b11111001011 +
bx 2
04
15
#282000
0!
#283000
1!
b1xxxxxxxxxxxxxxxxxxxxxxxx %
b1xxxxxxxxxxxxxxxxxxxxxxxx (
b0 )
0*
#284000
0!
#285000
1!
0#
b1 &
b0 )
0*
b11 +
bx 2
04
05
#286000
0!
#287000
1!
b10010 %
b0 &
b10010 (
b0 )
0*
b10010000000000000000000000000000 +
b1 2
13
04
05
#288000
0!
#289000
1!
b0 %
b0 )
1*
b10010000000000000000000000010100 +
#290000
0!
#291000
1!
1#
1$
b0 %
b11 &
b0 (
b0 )
1*
b1111 2
14
05
#292000
0!
#293000
1!
1#
0$
b0 &
b0 '
b0 )
1*
b11111001100 +
bx ,
0-
0.
b1111 2
03
04
15
#294000
0!
#295000
1!
b11 %
b11 (
b0 )
0*
#296000
0!
#297000
1!
0#
b0 &
b0 )
0*
b1100000 +
b11 2
04
05
#298000
0!
#299000
1!
1#
b10010 %
b0 &
b10010 (
b0 )
0*
b11111010000 +
b1111 2
04
15
#300000
0!
#301000
1!
b11 %
b11 (
b0 )
0*
#302000
0!
#303000
1!
0#
b11 &
b0 )
0*
b1100011 +
bx 2
04
05
#304000
0!
#305000
1!
1#
b0 &
b0 )
0*
b11111010100 +
b1111 2
04
15
#306000
0!
#307000
1!
b11 (
b0 )
0*
#308000
0!
#309000
1!
0#
b0 &
b0 )
0*
b110000000000 +
b11 2
04
05
#310000
0!
#311000
1!
b0 &
b11 (
b0 )
0*
b10010000000000000000000000000000 +
b1 2
13
04
05
#312000
0!
#313000
1!
b0 %
b0 )
1*
b10010000000000000000000000011000 +
#314000
0!
#315000
1!
b0 %
b110000000000 &
b1xxxxxxxxxxxxxxxxxxxxxxxx (
b0 )
1*
b110001100011 +
bx 2
03
04
05
#316000
0!
#317000
1!
1#
1$
b11 %
b110001100011 &
b11 (
b0 )
0*
b10010000000000000000000000011000 +
b1111 2
13
14
05
#318000
0!
#319000
1!
0#
0$
b0 %
b0 &
b1xxxxxxxxxxxxxxxxxxxxxxxx (
b0 )
1*
b0 +
bx ,
0-
0.
b1 2
03
04
05
#320000
0!
#321000
1!
b11 %
b11 (
b0 )
0*
b10010000000000000000000000000000 +
b11 ,
0-
1.
b10010 /
13
04
05
#322000
0!
#323000
1!
1#
b0 %
b0 &
b0 '
b0 )
1*
b11 ,
0-
1.
b1111 /
bx000000000000000000000000000000110000010000000111 0
b1111 2
14
05
#324000
0!
#325000
1!
b0 )
1*
b11 ,
0-
1.
b1100 /
bx000000000000000000000000000000110000010000000111000001110000011000000100 0
#326000
0!
#327000
1!
0#
b1010000000000 &
b0 )
1*
b1 +
b11 ,
0-
1.
b0 /
bx000000000000000000000000000000110000010000000111000001110000011000000100000001000000000000000001 0
b10 2
03
04
05
#328000
0!
#329000
1!
b11 %
b1 &
b0 )
0*
b110111100 +
b11 ,
0-
1.
b11 /
b100000001000000000000000001000000000000000000000000000010010000100000000111000001100000010100000100000000110000001000000001 0
b1 2
#330000
0!
#331000
1!
1#
b0 &
b11 (
b0 )
0*
b11111100100 +
b11 ,
0-
1.
bx /
b111000001110000011000000100000001000000000000000001000000000000000000000000000010010000100000000111000001100000010100000100 0
b1111 2
04
15
#332000
0!
#333000
1!
b11 (
b0 )
0*
bx ,
1-
0.
bx /
bx 0
#334000
0!
#335000
1!
b0 )
0*
b11111001100 +
#336000
0!
#337000
1!
b11 (
b0 )
0*
#338000
0!
#339000
1!
0#
b11 &
b0 )
0*
b0 +
b1 2
04
05
#340000
0!
#341000
1!
1#
1$
b0 &
b11 (
b0 )
0*
b11111100100 +
b1111 2
04
15
#342000
0!
#343000
1!
0#
0$
b0 &
b11 (
b0 )
0*
b11 +
b1000 2
04
05
#344000
0!
#345000
1!
1#
b0 &
b11 (
b0 )
0*
b11111100100 +
b1111 2
04
15
#346000
0!
#347000
1!
b0 %
b0 (
b0 )
0*
#348000
0!
#349000
1!
0#
b0 &
b0 )
0*
b11 +
b1000 2
04
05
#350000
0!
#351000
1!
1#
1$
b11 %
b11 &
b11 (
b0 )
0*
b11111011000 +
bx ,
1-
0.
bx /
b1111 2
04
15
#352000
0!
#353000
1!
1#
0$
b0 %
b0 &
b0 (
b0 )
0*
b11111100100 +
b1100 ,
1-
1.
b11000 /
b10010000000000000000000000000000110110000000000000000000000000001100000000000000000000000000000011110 1
b1111 2
#354000
0!
#355000
1!
b0 (
b0 )
0*
b1100 ,
1-
1.
b100100 /
bx 0
b110011000000000000000000000000010001010000000000000000000000000011011000000000000000000000000001000010 1
#356000
0!
#357000
1!
0#
b0 &
b0 )
0*
b1111000 +
b1100 ,
1-
1.
b110000 /
bx 0
b0xxxxxxxxxxxxxxxxxxxxxxxx00000000xxxxxxxxxxxxxxxxxxxxxxxx00000000xxxxxxxxxxxxxxxxxxxxxxxx00000000xxxxxxxxxxxxxxxxxxxxxxxx 1
b11 2
04
05
#358000
0!
#359000
1!
1#
b100000000000 &
b0 (
b0 )
0*
b11111101000 +
bx ,
1-
0.
bx /
bx 0
b1111 2
04
15
#360000
0!
#361000
1!
b11 %
b11 (
b0 )
0*
bx 0
#362000
0!
#363000
1!
b0 &
b0 )
0*
b11111010000 +
b1111 2
#364000
0!
#365000
1!
b11 (
b0 )
0*
#366000
0!
#367000
1!
0#
b11 &
b0 )
0*
b0 +
b1 2
04
05
#368000
0!
#369000
1!
1#
1$
b0 &
b0 )
0*
b11111101000 +
b1111 2
04
15
#370000
0!
#371000
1!
0#
0$
b0 &
b11 (
b0 )
0*
b11 +
b1000 2
04
05
#372000
0!
#373000
1!
1#
b100000000000 &
b11 (
b0 )
0*
b11111101000 +
b1111 2
04
15
#374000
0!
#375000
1!
b0 %
b0 (
b0 )
0*
#376000
0!
#377000
1!
0#
b0 &
b0 )
0*
b11 +
b1000 2
04
05
#378000
0!
#379000
1!
1#
1$
b11 %
b11 &
b11 (
b0 )
0*
b11111011100 +
b1111 2
04
15
#380000
0!
#381000
1!
0#
0$
b0 %
b0 &
b0 (
b0 )
0*
b11 +
b1000 2
04
05
#382000
0!
#383000
1!
1#
1$
b11 %
b11 &
b11 (
b0 )
0*
b11111100100 +
b1111 2
04
15
#384000
0!
#385000
1!
1#
0$
b0 %
b100000000000 &
b0 (
b0 )
0*
b11111101000 +
b1111 2
#386000
0!
#387000
1!
b0 (
b0 )
0*
#388000
0!
#389000
1!
0#
b0 &
b0 )
0*
b1100000 +
b11 2
04
05
#390000
0!
#391000
1!
1#
b11 %
b0 &
b11 (
b0 )
0*
b11111101100 +
b1111 2
04
15
#392000
0!
#393000
1!
b11 (
b0 )
0*
#394000
0!
#395000
1!
b0 )
0*
b11111010100 +
#396000
0!
#397000
1!
b11 (
b0 )
0*
#398000
0!
#399000
1!
0#
b11 &
b0 )
0*
b0 +
b1 2
04
05
#400000
0!
#401000
1!
1#
1$
b0 &
b11 (
b0 )
0*
b11111101100 +
b1111 2
04
15
#402000
0!
#403000
1!
0#
0$
b0 &
b11 (
b0 )
0*
b11 +
b1000 2
04
05
#404000
0!
#405000
1!
1#
b0 &
b11 (
b0 )
0*
b11111101100 +
b1111 2
04
15
